…
| name    | species |   cp|   hp|  weight|  height|  power\_up\_stardust|  power\_up\_candy| attack\_weak | attack\_weak\_type |  attack\_weak\_value| attack\_strong | attack\_strong\_type |  attack\_strong\_value|  cp\_new|  hp\_new|  weight\_new|  height\_new|  power\_up\_stardust\_new|  power\_up\_candy\_new| attack\_weak\_new | attack\_weak\_type\_new |  attack\_weak\_value\_new| attack\_strong\_new | attack\_strong\_type\_new |  attack\_strong\_value\_new| notes |
|:--------|:--------|----:|----:|-------:|-------:|--------------------:|-----------------:|:-------------|:-------------------|--------------------:|:---------------|:---------------------|----------------------:|--------:|--------:|------------:|------------:|-------------------------:|----------------------:|:------------------|:------------------------|-------------------------:|:--------------------|:--------------------------|---------------------------:|:------|
| Pidgey1 | Pidgey  |  384|   56|    2.31|    0.34|                 2500|                 2| Tackle       | Normal             |                   12| Aerial Ace     | Flying               |                     30|      694|       84|         2.60|         1.24|                      2500|                      2| Steel Wing        | Steel                   |                        15| Air Cutter          | Flying                    |                          30|       |
| Pidgey2 | Pidgey  |  366|   54|    1.67|    0.29|                 2500|                 2| Quick Attack | Normal             |                   10| Twister        | Dragon               |                     25|      669|       81|         1.93|         1.05|                      2500|                      2| Wing Attack       | Flying                  |                         9| Air Cutter          | Flying                    |                          30|       |
| Pidgey3 | Pidgey  |  353|   55|    1.94|    0.30|                 3000|                 3| Quick Attack | Normal             |                   10| Aerial Ace     | Flying               |                     30|      659|       83|         3.51|         1.11|                      3000|                      3| Wing Attack       | Flying                  |                         9| Air Cutter          | Flying                    |                          30|       |
| Pidgey4 | Pidgey  |  338|   51|    1.73|    0.31|                 3000|                 3| Tackle       | Normal             |                   12| Air Cutter     | Flying               |                     30|      640|       79|        30.00|         1.12|                      3000|                      3| Steel Wing        | Steel                   |                        15| Air Cutter          | Flying                    |                          30|       |
| Pidgey5 | Pidgey  |  242|   45|    1.44|    0.27|                 1900|                 2| Quick Attack | Normal             |                   10| Air Cutter     | Flying               |                     30|      457|       69|         1.42|         0.98|                      1900|                      2| Wing Attack       | Flying                  |                         9| Twister             | Dragon                    |                          25|       |
| Pidgey6 | Pidgey  |  129|   35|    2.07|    0.35|                  800|                 1| Quick Attack | Normal             |                   10| Air Cutter     | Flying               |                     30|      243|       52|        30.00|         1.27|                       800|                      1| Wing Attack       | Flying                  |                         9| Aerial Ace          | Flying                    |                          30|       |

``` r

pokemon_subjects %>%
  left_join(pokemon_names, by = c("pokemon_id"="index")) %>%
  count(name, sort=T)
#> # A tibble: 51 x 2
#>         name     n
#>        <chr> <int>
#> 1     Pidgey    73
#> 2    Rattata    30
#> 3       <NA>    18
#> 4  Growlithe    11
#> 5     Weedle    11
#> 6      Ekans    10
#> 7    Spearow    10
#> 8     Meowth     8
#> 9     Pinsir     7
#> 10   Poliwag     7
#> # ... with 41 more rows
```
